{ 
        "data": { 
                "t_material_details_count": 10, 
                "EV_TODAY": "Thu Sept 20 00:00:00 UTC 2018", 
                "IMPORTPARAMS": { 
                        "IV_DIST_CHANNEL": "05", 
                        "IV_SALES_ORG": "DE01", 
                        "IV_DIVISION": "01", 
                        "IV_CUSTOMER_NUMBER": "12033304" 
                }, 
                "T_MATERIAL_DETAILS": [{ 
                        "UOM_DESCRIPTION": "", 
                        "MATERIAL_ID": "100002392", 
                        "PLANT": "2105", 
                        "PLANT_NAME": "Transtank TL Koeln", 
                        "PRICE": "55,45", 
                        "PRICING_UNIT": "1", 
                        "MATERIAL_DESCRIPTION": "Heizoel EL 50 ppm S", 
                        "CURRENCY": "EUR", 
                        "UOM_EXT": "H15", 
                        "UOM": "H15",
                        "PLANT_SHORT_ADDRESS": "St. Leonardus-Str. 3,50735 KÖLN",
                        "CREATION_TIME": "Thur Sept 20 08:11:27 UTC 2018",
			"CREATION_DATE": "Thur Sept 20 00:00:00 UTC 2018"
                }, { 
                        "UOM_DESCRIPTION": "", 
                        "MATERIAL_ID": "100002392",
                        "PLANT": "5579", 
                        "PLANT_NAME": "Oiltanking TL Duisburg", 
                        "PRICE": "55,50", 
                        "PRICING_UNIT": "1", 	
                        "MATERIAL_DESCRIPTION": "Heizoel EL 50 ppm S", 
                        "CURRENCY": "EUR", 
                        "UOM_EXT": "H15", 
                        "UOM": "H15", 
                        "PLANT_SHORT_ADDRESS": "Am Parallelhafen 36,47059 DUISBURG",
                        "CREATION_TIME": "Thur Sept 20 08:11:27 UTC 2018",
			"CREATION_DATE": "Thur Sept 20 00:00:00 UTC 2018"
                }, { 
                        "UOM_DESCRIPTION": "", 
                        "MATERIAL_ID": "100002652", 
                        "PLANT": "2105", 
                        "PLANT_NAME": "Transtank TL Koeln", 
                        "PRICE": "113,55", 
                        "PRICING_UNIT": "1", 
                        "MATERIAL_DESCRIPTION": "Aral Super 95", 
                        "CURRENCY": "EUR", 
                        "UOM_EXT": "H15", 
                        "UOM": "H15", 
                        "PLANT_SHORT_ADDRESS": "St. Leonardus-Str. 3,50735 KÖLN",
                        "CREATION_TIME": "Thur Sept 20 08:11:27 UTC 2018",
			"CREATION_DATE": "Thur Sept 20 00:00:00 UTC 2018"
                }, { 
                        "UOM_DESCRIPTION": "", 
                        "MATERIAL_ID": "100002652", 
                        "PLANT": "2101", 
                        "PLANT_NAME": "Transtank TL Gelsenkirchen", 
                        "PRICE": "113,50", 
                        "PRICING_UNIT": "1",  
                        "MATERIAL_DESCRIPTION": "Aral Super 95", 
                        "CURRENCY": "EUR", 
                        "UOM_EXT": "H15", 
                        "UOM": "H15", 
                        "PLANT_SHORT_ADDRESS": "Am Stadthafen 60,45881 GELSENKIRCHEN",
                        "CREATION_TIME": "Thur Sept 20 08:11:27 UTC 2018",
			"CREATION_DATE": "Thur Sept 20 00:00:00 UTC 2018"
                }, { 
                        "UOM_DESCRIPTION": "", 
                        "MATERIAL_ID": "100002652", 
                        "PLANT": "1016", 
                        "PLANT_NAME": "Raffinerie BP Lingen", 
                        "PRICE": "113,30", 
                        "PRICING_UNIT": "1",  
                        "MATERIAL_DESCRIPTION": "Aral Super 95", 
                        "CURRENCY": "EUR", 
                        "UOM_EXT": "H15", 
                        "UOM": "H15", 
                        "PLANT_SHORT_ADDRESS": "Raffineriestr. 1,49808 LINGEN",
                        "CREATION_TIME": "Thur Sept 20 08:11:27 UTC 2018",
			"CREATION_DATE": "Thur Sept 20 00:00:00 UTC 2018"
                }, { 
                        "UOM_DESCRIPTION": "", 
                        "MATERIAL_ID": "100003017", 
                        "PLANT": "2101", 
                        "PLANT_NAME": "Transtank TL Gelsenkirchen", 
                        "PRICE": "97,20", 
                        "PRICING_UNIT": "1", 
                        "MATERIAL_DESCRIPTION": "Diesel mit Additiv", 
                        "CURRENCY": "EUR", 
                        "UOM_EXT": "H15", 
                        "UOM": "H15", 
                        "PLANT_SHORT_ADDRESS": "Am Stadthafen 60,45881 GELSENKIRCHEN",
                        "CREATION_TIME": "Thur Sept 20 08:11:27 UTC 2018",
			"CREATION_DATE": "Thur Sept 20 00:00:00 UTC 2018"
                }, { 
                        "UOM_DESCRIPTION": "", 
                        "MATERIAL_ID": "100003017", 
                        "PLANT": "2105", 
                        "PLANT_NAME": "Transtank TL Koeln", 
                        "PRICE": "97,25", 
                        "PRICING_UNIT": "1",  
                        "MATERIAL_DESCRIPTION": "Diesel mit Additiv", 
                        "CURRENCY": "EUR", 
                        "UOM_EXT": "H15", 
                        "UOM": "H15", 
                        "PLANT_SHORT_ADDRESS": "St. Leonardus-Str. 3,50735 KÖLN",
                        "CREATION_TIME": "Thur Sept 20 08:11:27 UTC 2018",
			"CREATION_DATE": "Thur Sept 20 00:00:00 UTC 2018"
                }, { 
                        "UOM_DESCRIPTION": "", 	
                        "MATERIAL_ID": "100003017", 
                        "PLANT": "2104", 
                        "PLANT_NAME": "Transtank TL Gustavsburg", 
                        "PRICE": "98,10", 
                        "PRICING_UNIT": "1",  
                        "MATERIAL_DESCRIPTION": "Diesel mit Additiv", 
                        "CURRENCY": "EUR", 
                        "UOM_EXT": "H15", 
                        "UOM": "H15", 
                        "PLANT_SHORT_ADDRESS": "Landdammstr. 57 65462 GUSTAVSBURG",
                        "CREATION_TIME": "Thur Sept 20 08:11:27 UTC 2018",
			"CREATION_DATE": "Thur Sept 20 00:00:00 UTC 2018"
                }, { 
                        "UOM_DESCRIPTION": "", 
                        "MATERIAL_ID": "100003017", 
                        "PLANT": "1514", 
                        "PLANT_NAME": "Raffinerie Gelsenkirchen-Horst", 
                        "PRICE": "97,20", 
                        "PRICING_UNIT": "1",  
                        "MATERIAL_DESCRIPTION": "Diesel mit Additiv", 
                        "CURRENCY": "EUR", 
                        "UOM_EXT": "H15",  
                        "UOM": "H15", 
                        "PLANT_SHORT_ADDRESS": "Johannastr. 2-8 45899 GELSENKIRCHEN",
                        "CREATION_TIME": "Thur Sept 20 08:11:27 UTC 2018",
			"CREATION_DATE": "Thur Sept 20 00:00:00 UTC 2018"
                }, { 
                        "UOM_DESCRIPTION": "", 
                        "MATERIAL_ID": "100003017", 
                        "PLANT": "5579", 
                        "PLANT_NAME": "Oiltanking TL Duisburg",
                        "PRICE": "97,30", 
                        "PRICING_UNIT": "1",  
                        "MATERIAL_DESCRIPTION": "Diesel mit Additiv", 
                        "CURRENCY": "EUR", 
                        "UOM_EXT": "H15", 
                        "UOM": "H15", 
                        "PLANT_SHORT_ADDRESS": "Am Parallelhafen 36,47059 DUISBURG",
                        "CREATION_TIME": "Thur Sept 20 08:11:27 UTC 2018",
			"CREATION_DATE": "Thur Sept 20 00:00:00 UTC 2018"
                }]
        } 
} 
