{
	"data": {
		"T_SALES_AREAS": [{
			"SALES_ORG": "DE01",
			"DIST_CHANNEL": "05",
			"DIVISION": "01",
			"INCLUDE_QUOTES": "",
			"MERGE_FLAG": ""
      }],
      "t_sales_areas_count": 1,
      "EV_DUPLICATE_SOLD_TOS": "",
      "T_BUSINESS_PARTNERS": [{
        "SALES_ORG": "DE01",
        "DIST_CHANNEL": "05",
        "DIVISION": "01",
        "SALES_AREA": "BP B2B (DE)",
        "NAME": "Musterstr. 45",
        "SHORT_ADDRESS": "44444 Musterstadt",
        "LONG_NAME": "Max Mustermann",
        "PLTYP_TYPE": "",
        "BP_NUMBER": "12136101",
        "CUST_REF_NUMBER": "",
        "LONG_ADDRESS": "DIESELSTR. 14-20\r\n41189 MÖNCHENGLADBACH\r\nNordrhein-Westfalen\r\nGERMANY"
        }],
        "IMPORTPARAMS": {
          "IV_GET_SALES_AREA_DETAILS": "X",
          "IV_MULTI_PARTNER": " ",
          "IV_PARTNER_FUNCTION": "AG",
          "IV_PARTNER_NUMBER": "0012136101",
          "IV_GET_FLEXI_CUSTOMER": "X",
          "IV_USER_TYPE": "KU",
          "IV_LIMIT": "999"
        },
        "t_business_partners_count": 1
      },
      "debug": {
        "BAPICall.outputResponse_httpsession": "has no attributes",
        "bapiexporthandletime": "0",
        "connection": "Closing JCA connection for user portaltstf86, bapi ZCSP_CUSTOMER_SEARCH Thread ID: 157 JCA hashcode: 1403188977",
        "T_SALES_AREAS": "loaded from cache: 'com.sapportals.connectors.SAPCFConnector.execution.structures.RecordSetWrapper@1....",
        "jsonParamsArray": "[{\"value\":\"[{\\\"SALES_ORG\\\":\\\"DE01\\\",\\\"DIST_CHANNEL\\\":\\\"05\\\",\\\"DIVISION\\\":\\\"01\\\"}]\",\"property\":\"T_SAL....",
        "post": "true",
        "filter100": "[{\"property\":\"T_SALES_AREAS\",\"value\":\"[{\\\"SALES_ORG\\\":\\\"DE01\\\",\\\"DIST_CHANNEL\\\":\\\"05\\\",\\\"DIVISION\\\":....",
          "bapicalltime": "213",
          "jsonParam": "{\"value\":\"999\",\"property\":\"IV_LIMIT\"}",
          "inputparams100": "",
          "sessionid": "sqCcYXt29eBIN36aqf3tWtx4-Pc5ZAGVJOkA_SAP",
          "securityexempt": "false",
          "boundary": "",
          "BAPICall.initialise_bpcspcache": "",
          "param:mode": "CUSTOMER",
          "requesttoken": "1862498621",
          "sessionlastaccessed": "1529983272818",
          "systemalias": "PF_ECC (from cache)",
          "totalbapitime": "213",
          "BAPICall.initialise_httpsession": "has no attributes",
          "param:_dc": "1529983292296",
          "BAPICall.outputResponse_bpcspcache": "",
          "param:filter": "[{\"property\":\"T_SALES_AREAS\",\"value\":\"[{\\\"SALES_ORG\\\":\\\"DE01\\\",\\\"DIST_CHANNEL\\\":\\\"05\\\",\\\"DIVISION\\\":...."
          },
          "success": "true",
          "messages": []
        }
        