<svg xmlns="http://www.w3.org/2000/svg" xmlns:xlink="http://www.w3.org/1999/xlink" width="64" height="64" viewBox="0 0 64 64">
    <defs>
        <path id="a" d="M0 0h42.142v50.015H0z"/>
        <path id="b" d="M0 0h64.024v3.637H0z"/>
    </defs>
    <g fill="none" fill-rule="evenodd">
        <g transform="translate(-1 61)">
            <mask id="c" fill="#fff">
                <use xlink:href="#b"/>
            </mask>
            <path fill="#51A4E9" d="M66.03 0H3.994C3.445 0 3 .79 3 1.766v.106c0 .975.445 1.765.993 1.765h62.038c.548 0 .993-.79.993-1.765v-.106C67.024.79 66.579 0 66.031 0" mask="url(#c)"/>
        </g>
        <path fill="#1B70D0" d="M61 54v-3 3zm-8-26h-8v-5.952h1.489c.833 0 1.32-.431 1.795-1.209.719-1.172.676-2.63.676-2.927l.036-5.305c0-1.08.474-1.607 1.057-1.607l1.685.002c.067 0 .868.056 1.048.238.208.211.214.723.214.936V28zm8 19.816V34.624c0-2.301-.775-3.808-2.168-3.808h-3.795V12.659c0-.932.045-1.76-.252-2.332-.357-.687-.737-.71-1.262-.69-.07.003-.563.003-.624.003-.32 0-.627-.002-.988-.006-.42-.003-.78-.006-1.272-.006-1.328 0-2.444.887-2.444 3.265l-.018 6.383c0 .012.079 1.268-.34 2.002-.252.44-.479.59-.993.59h-1.563V11.524C45.28 9.222 44.395 8 43 8h-8.144C33.464 8 32 9.222 32 11.524v12.581h8.994c.867 0 1.576 2.127 1.576 3.557V59H61V47.816z"/>
        <path fill="#1B70D0" d="M36.066 40.45c0 .497-.43.9-.96.9h-2.98c-.53 0-.959-.403-.959-.9v-2.8c0-.497.43-.9.96-.9h2.98c.53 0 .959.403.959.9v2.8zm0 9.966c0 .499-.43.902-.96.902h-2.98c-.53 0-.959-.403-.959-.902v-2.797c0-.498.43-.901.96-.901h2.98c.53 0 .959.403.959.901v2.797zM27.9 40.45c0 .497-.43.9-.96.9h-2.978c-.53 0-.96-.403-.96-.9v-2.8c0-.497.43-.9.96-.9h2.978c.53 0 .96.403.96.9v2.8zm0 9.966c0 .499-.43.902-.96.902h-2.978c-.53 0-.96-.403-.96-.902v-2.797c0-.498.43-.901.96-.901h2.978c.53 0 .96.403.96.901v2.797zM19.33 40.45c0 .497-.43.9-.96.9h-2.98c-.529 0-.959-.403-.959-.9v-2.8c0-.497.43-.9.96-.9h2.979c.53 0 .96.403.96.9v2.8zm0 9.966c0 .499-.43.902-.96.902h-2.98c-.529 0-.959-.403-.959-.902v-2.797c0-.498.43-.901.96-.901h2.979c.53 0 .96.403.96.901v2.797zm-8.165-9.966c0 .497-.43.9-.96.9H7.226c-.53 0-.96-.403-.96-.9v-2.8c0-.497.43-.9.96-.9h2.978c.53 0 .96.403.96.9v2.8zm0 9.966c0 .499-.43.902-.96.902H7.226c-.53 0-.96-.403-.96-.902v-2.797c0-.498.43-.901.96-.901h2.978c.53 0 .96.403.96.901v2.797zm28.167-17.303c0-1.227-.873-2.113-2.18-2.113H6.12C4.816 31 3 31.886 3 33.113v25.49h36.331v-25.49z"/>
    </g>
</svg>
