{
    "messages": [],
    "success": "true",
    "data": {
        "E_CONF_DEL_TIME": "Thu Jan 01 00:00:00 GMT 1970",
        "E_DRIVER_CODE": "",
        "EV_SHOW_OPEN_QTY": "X",
        "E_PICK_UP": "",
        "EV_SHOW_MSDS": "X",
        "E_SHIPPING_COND": "02",
        "T_COMMENTS": [
            {
                "TDLINE": "Test delivery instr 123",
                "TDFORMAT": ""
            }
        ],
        "E_CONF_DEL_WINDOW": "",
        "E_PICKUP_TYPE": "00",
        "IMPORTPARAMS": {
            "I_PARTNER_NUMBER": "10031295",
            "I_PARTNER_FUNCTION": "AG",
            "I_SHIPMENT_NUMBER": "200214624"
        },
        "E_DRIVER_NAME": "",
        "T_DOCUMENT_FLOW": [
            {
                "DOCUMENT_DESC": "Order",
                "DOCUMENT_NUMBER_EXT": "190491",
                "DOCUMENT_NUMBER": "190491",
                "DOCUMENT_TYPE": "C"
            },
            {
                "DOCUMENT_DESC": "Invoice",
                "DOCUMENT_NUMBER": "9000167222",
                "DOCUMENT_TYPE": "M"
            },
            {
                "DOCUMENT_DESC": "Credit memo",
                "DOCUMENT_NUMBER": "5000007430",
                "DOCUMENT_TYPE": "O"
            },
            {
                "DOCUMENT_DESC": "Debit memo",
                "DOCUMENT_NUMBER": "5000007470",
                "DOCUMENT_TYPE": "P"
            }
        ],
        "T_SHIPMENT_ITEMS": [
            {
                "ORDER_QUANTITY": "4.000",
                "QUANTITY": "4.000",
                "TANK_LEVEL": "000",
                "SALES_UOM_DESCRIPTION": "each",
                "DELNOTE": "0800291264",
                "UOM": "EA",
                "UOM_EXT": "EA",
                "TANK_UOM": "",
                "OPEN_QUANTITY": "0",
                "MATERIAL_ID": "151A94",
                "UOM_DESCRIPTION": "each",
                "DOCUMENT_NUMBER": "800291264",
                "BASE_MATERIAL_ID": "467685",
                "ORDER_NUMBER": "190491",
                "TANK_UOM_DESCRIPTION": "",
                "TANK_CAPACITY": "0",
                "TANK_ID": "",
                "TANK_UOM_EXT": "",
                "ITEM_NUMBER": "000010",
                "CUST_MATERIAL_ID": "151A94",
                "SALES_UOM_EXT": "EA",
                "MATERIAL_DESCRIPTION": "Castrol Magnatec Professional E 5W-20 12 X 1 LT",
                "SALES_UOM": "EA",
                "ORDER_ITEM_NO": "000030"
            }
        ],
        "E_SHIP_TO": {
            "LONG_ADDRESS": "Voie Michel 5\r\n6940 BARVAUX\r\nLiège\r\nBELGIUM",
            "CUST_REF_NUMBER": "",
            "BP_NUMBER": "50002966",
            "LONG_NAME": "Ets Devillers SA",
            "SHORT_ADDRESS": "Voie Michel 5,6940 BARVAUX",
            "NAME": "Ets Devillers SA"
        },
        "T_SHIPMENT_STATUS": [
            {
                "SHIPMENT_DATE": "Wed Jun 06 00:00:00 BST 2012",
                "STATUS": "Completed",
                "DATE_TEXT": "Loaded",
                "SHIPMENT_TIME": "07:51:00",
                "SHIPMENT_TYPE": "8",
                "STATUS_ID": "7"
            }
        ],
        "E_PICKUP_LOCATION": {
            "LONG_ADDRESS": "Company\r\nMercuriusstraat 2\r\n4551 LB  SAS VAN GENT\r\nNETHERLANDS",
            "CUST_REF_NUMBER": "",
            "BP_NUMBER": "3063",
            "LONG_NAME": "NL De Rijke, Sluiskil",
            "SHORT_ADDRESS": "Mercuriusstraat 2,4551 LB  SAS VAN GENT",
            "NAME": "NL De Rijke, Sluiskil"
        },
        "E_TRUCK_NUMBER": "",
        "E_PO_NUMBER": "040612"
    }
}