{
    "data": {
        "EV_PERIOD_END_DATE": "Tue Apr 29 00:00:00 UTC 2014",
        "EV_PERIOD_END_TIME": "Thu Jan 01 15:15:00 UTC 1970",
        "EV_PERIOD_START_TIME": "Thu Jan 01 14:59:00 UTC 1970",
        "EV_PRICING_ALLOWED": "N",
        "EV_SYSTEM_DATE": "Tue Apr 29 00:00:00 UTC 2014",
        "EV_SYSTEM_TIME": "Thu Jan 01 14:59:02 UTC 1970",
        "EV_TIMEZONE": "CET",
        "IMPORTPARAMS": {
            "IV_CUSTOMER_NUMBER": "12387348",
            "IV_DIST_CHANNEL": "05",
            "IV_DIVISION": "01",
            "IV_SALES_ORG": "AT0H"
        }
    },
    "debug": {
        "IV_CUSTOMER_NUMBER": "12387348",
        "IV_DIST_CHANNEL": "05",
        "IV_DIVISION": "01",
        "IV_SALES_ORG": "AT0H",
        "IV_USER_TIME": "2014-04-29T13:59:02",
        "bapicalltime": "21",
        "bapiexporthandletime": "1",
        "boundary": "",
        "connectionsetuptime": "14",
        "connectiontype": "JCA",
        "filter100": "",
        "inputparams100": "[{\"IV_CUSTOMER_NUMBER\":\"12387348\",\"IV_SALES_ORG\":\"AT0H\",\"IV_DIST_CHANNEL\":\"05\",\"IV_DIVISION\":\"01\",\"I....",
        "jsonParam": "{\"IV_DIST_CHANNEL\":\"05\",\"IV_USER_TIME\":\"2014-04-29T13:59:02\",\"IV_SALES_ORG\":\"AT0H\",\"IV_DIVISION\":\"01....",
        "jsonParamsArray": "[{\"IV_DIST_CHANNEL\":\"05\",\"IV_USER_TIME\":\"2014-04-29T13:59:02\",\"IV_SALES_ORG\":\"AT0H\",\"IV_DIVISION\":\"0....",
        "mode": "CHECKTIME",
        "param:_dc": "1398776342727",
        "param:inputparams": "[{\"IV_CUSTOMER_NUMBER\":\"12387348\",\"IV_SALES_ORG\":\"AT0H\",\"IV_DIST_CHANNEL\":\"05\",\"IV_DIVISION\":\"01\",\"I....",
        "param:mode": "CHECKTIME",
        "post": "true",
        "requesttoken": "-575307589",
        "securityexempt": "false",
        "sessionid": "RnVKpzOq2pIfNpN-U5Ed7zMoq46tRQF7qAQe_SAP",
        "sessionlastaccessed": "1398776216067",
        "systemalias": "PF_ECC (from cache)",
        "totalbapitime": "23"
    },
    "messages": [],
    "success": "true"
}