{
  "data": {
    "T_RESULTS": [
      {
        "shipto": "0050113077",
        "dips": [
          {
            "message": "ALL OK",
            "code": "0",
            "tank": "1"
          },
          {
            "message": "Tank product does not match product association with tank in scheduling system",
            "code": "0",
            "tank": "2"
          }
        ]
      }
    ]
  },
  "success": "true",
  "messages": [
    {
      "message": "Code 7: Shipto 0050113077: Tank 2: Tank product does not match product association with tank in scheduling system",
      "type": "W"
    }
  ]
}
