{
  "data": {
    "t_plants_count": 3,
    "EV_DUPLICATE_SHIP_TOS": "X",
    "T_SHIPPING_CONDS": [
      {
        "SHIPPING_COND": "01",
        "SHIPPING_COND_TEXT": "Road Transport Deliv",
        "PICK_UP": ""
      }
    ],
    "T_SALES_AREAS": [
      {
        "SALES_ORG": "AU0A",
        "DIST_CHANNEL": "05",
        "DIVISION": "01",
        "INCLUDE_QUOTES": "",
        "MERGE_FLAG": "X"
      },
      {
        "SALES_ORG": "AU0B",
        "DIST_CHANNEL": "05",
        "DIVISION": "01",
        "INCLUDE_QUOTES": "",
        "MERGE_FLAG": "X"
      }
    ],
    "t_shipping_conds_count": 1,
    "t_sales_areas_count": 2,
    "T_BUSINESS_PARTNERS": [
      {
        "NAME": "Thiess Pty Ltd - Mt Owen Mine Raven",
        "SHORT_ADDRESS": "HEBDEN ROAD,RAVENSWORTH NSW 2330",
        "SHIPPING_COND": "01",
        "SHIPPING_COND_TEXT": "Road Transport Deliv",
        "CUST_REF_NUMBER": "",
        "LONG_ADDRESS": "HEBDEN ROAD\r\nRAVENSWORTH NSW 2330\r\nNew South Wales\r\nAUSTRALIA",
        "SALES_ORG": "AU0A",
        "DIST_CHANNEL": "05",
        "DIVISION": "01",
        "SALES_AREA": "Fuels B2B",
        "PLANT": "2033",
        "PLANT_NAME": "AU TERM NEWCASTLE",
        "LONG_NAME": "Tank read fail with no messages and a longer name to see",
        "BP_NUMBER": "0050113077"
      },
      {
        "NAME": "Thiess Pty Ltd - Mt Owen Mine Raven",
        "SHORT_ADDRESS": "HEBDEN ROAD,RAVENSWORTH NSW 2330",
        "SHIPPING_COND": "01",
        "SHIPPING_COND_TEXT": "Road Transport Deliv",
        "CUST_REF_NUMBER": "",
        "LONG_ADDRESS": "HEBDEN ROAD\r\nRAVENSWORTH NSW 2330\r\nNew South Wales\r\nAUSTRALIA",
        "SALES_ORG": "AU0B",
        "DIST_CHANNEL": "05",
        "DIVISION": "01",
        "SALES_AREA": "Fuels B2B Test",
        "PLANT": "2033",
        "PLANT_NAME": "AU TERM NEWCASTLE",
        "LONG_NAME": "Tank read fail with messages",
        "BP_NUMBER": "0050113088"
      }
    ],
    "T_PLANTS": [
      {
        "PLANT": "2033",
        "PLANT_NAME": "AU TERM NEWCASTLE",
        "PLANT_SHORT_ADDRESS": "PO Box 24,CARRINGTON NSW 2294"
      },
      {
        "PLANT": "2038",
        "PLANT_NAME": "AU TERM WHINSTANES",
        "PLANT_SHORT_ADDRESS": "Kingsford Smith Drive,WHINSTANES QLD 4007"
      },
      {
        "PLANT": "5487",
        "PLANT_NAME": "AU THDPTY BFA X WHINSTANES",
        "PLANT_SHORT_ADDRESS": "Kingsford Smith Drive,WHINSTANES QLD 4007"
      }
    ],
    "EV_CONTAINS_PICKUP": "",
    "IMPORTPARAMS": {
      "IV_MULTI_PARTNER": "",
      "IV_PARTNER_FUNCTION": "AG",
      "IV_PARTNER_NUMBER": "0012208894",
      "IV_FILTER_TYPE": "V",
      "IV_USER_TYPE": "KU"
    },
    "t_business_partners_count": 1
  },
  "success": "false",
  "messages": []
}
