<svg xmlns="http://www.w3.org/2000/svg" width="24" height="24" viewBox="0 0 24 24">
    <g fill="none" fill-rule="evenodd">
        <path fill="#51A4E3" d="M11.985 4.74L2.53 13.465a1.453 1.453 0 0 1-2.104-.132l-.053-.062a1.6 1.6 0 0 1 .127-2.191l10.495-9.686a1.441 1.441 0 0 1 1.977 0L23.47 11.08a1.6 1.6 0 0 1 .126 2.19l-.053.063c-.544.64-1.49.699-2.104.132L11.985 4.74z"/>
        <path fill="#1B70D0" d="M9.987 18.675h4.266v-5.498H9.987v5.498zM20.75 14.35l-8.63-7.965-8.63 7.965a2.72 2.72 0 0 1-.301.241v9.154h17.863V14.59a2.723 2.723 0 0 1-.302-.241z"/>
    </g>
</svg>
