<svg xmlns="http://www.w3.org/2000/svg" width="24" height="24" viewBox="0 0 24 24">
    <g fill="none" fill-rule="evenodd">
        <circle cx="12" cy="12" r="12" fill="#FF7E00"/>
        <text fill="#FFF" font-family="ArialMT, Arial" font-size="13">
            <tspan x="8" y="17">3</tspan>
        </text>
    </g>
</svg>
