{
    "data": {},
    "messages": [
        {
            "class": "ZSDS_SS",
            "message": "Sorry, there has been an error. Please retry or contact our sales team.",
            "number": "100",
            "row": 1,
            "type": "E"
        },
        {
            "class": "ZSDS_SS",
            "message": "Geeky technical description of the server fault ... hide from user.",
            "number": "100",
            "row": 1,
            "type": "D"
        }
    ],
    "success": "false"
}